<?xml version="1.0" encoding="utf-8"?>
<!-- Generator: Adobe Illustrator 16.0.2, SVG Export Plug-In . SVG Version: 6.00 Build 0)  -->
<!DOCTYPE svg PUBLIC "-//W3C//DTD SVG 1.1//EN" "http://www.w3.org/Graphics/SVG/1.1/DTD/svg11.dtd">
<svg version="1.1" id="Layer_1" xmlns="http://www.w3.org/2000/svg" xmlns:xlink="http://www.w3.org/1999/xlink" x="0px" y="0px"
	 width="137.661px" height="137.661px" viewBox="0 0 137.661 137.661" enable-background="new 0 0 137.661 137.661"
	 xml:space="preserve">
<g id="XMLID_93_">
	<g id="XMLID_356_">
		<circle id="XMLID_357_" fill="#FFD220" cx="68.831" cy="68.83" r="68.831"/>
	</g>
	<g id="XMLID_44_">
		
			<polyline id="XMLID_46_" fill="none" stroke="#403616" stroke-width="8.7122" stroke-linecap="round" stroke-linejoin="round" stroke-miterlimit="10" points="
			32.122,43.139 48.646,52.514 32.251,61.805 		"/>
		
			<polyline id="XMLID_45_" fill="none" stroke="#403616" stroke-width="8.6116" stroke-linecap="round" stroke-linejoin="round" stroke-miterlimit="10" points="
			105.538,61.806 89.396,52.431 105.412,43.139 		"/>
	</g>
	<path id="XMLID_47_" fill="none" stroke="#403616" stroke-width="7" stroke-linecap="round" stroke-miterlimit="10" d="
		M44.164,96.034c0,0,5.214-18.25,24.776-18.25s24.557,18.107,24.557,18.107"/>
</g>
</svg>
