<?xml version="1.0" encoding="utf-8"?>
<!-- Generator: Adobe Illustrator 16.0.2, SVG Export Plug-In . SVG Version: 6.00 Build 0)  -->
<!DOCTYPE svg PUBLIC "-//W3C//DTD SVG 1.1//EN" "http://www.w3.org/Graphics/SVG/1.1/DTD/svg11.dtd">
<svg version="1.1" id="Layer_1" xmlns="http://www.w3.org/2000/svg" xmlns:xlink="http://www.w3.org/1999/xlink" x="0px" y="0px"
	 width="137.662px" height="137.661px" viewBox="0 0 137.662 137.661" enable-background="new 0 0 137.662 137.661"
	 xml:space="preserve">
<g id="XMLID_99_">
	<g id="XMLID_350_">
		<circle id="XMLID_351_" fill="#FFD220" cx="68.831" cy="68.83" r="68.831"/>
	</g>
	<g id="XMLID_75_">
		<path id="XMLID_77_" fill="#403616" d="M51.164,55.827L51.164,55.827c0,2.75-2.25,5-5,5H28.831c-2.75,0-5-2.25-5-5l0,0
			c0-2.75,2.25-5,5-5h17.333C48.914,50.827,51.164,53.077,51.164,55.827z"/>
		<path id="XMLID_76_" fill="#403616" d="M113.831,55.827L113.831,55.827c0,2.75-2.25,5-5,5H91.498c-2.75,0-5-2.25-5-5l0,0
			c0-2.75,2.25-5,5-5h17.333C111.581,50.827,113.831,53.077,113.831,55.827z"/>
	</g>
	
		<line id="XMLID_80_" fill="none" stroke="#403616" stroke-width="6" stroke-linecap="round" stroke-miterlimit="10" x1="29.416" y1="88.494" x2="108.246" y2="88.494"/>
</g>
</svg>
