<?xml version="1.0" encoding="utf-8"?>
<!-- Generator: Adobe Illustrator 16.0.2, SVG Export Plug-In . SVG Version: 6.00 Build 0)  -->
<!DOCTYPE svg PUBLIC "-//W3C//DTD SVG 1.1//EN" "http://www.w3.org/Graphics/SVG/1.1/DTD/svg11.dtd">
<svg version="1.1" id="Layer_1" xmlns="http://www.w3.org/2000/svg" xmlns:xlink="http://www.w3.org/1999/xlink" x="0px" y="0px"
	 width="137.661px" height="137.662px" viewBox="0 0 137.661 137.662" enable-background="new 0 0 137.661 137.662"
	 xml:space="preserve">
<g id="XMLID_84_">
	<g id="XMLID_354_">
		<circle id="XMLID_355_" fill="#FFD220" cx="68.831" cy="68.831" r="68.831"/>
	</g>
	<g id="XMLID_6_">
		<path id="XMLID_8_" fill="none" stroke="#403616" stroke-width="7" stroke-linecap="round" stroke-miterlimit="10" d="
			M28.122,61.205c0,0-0.125-10.667,9.375-10.667s9.292,10.583,9.292,10.583"/>
		<path id="XMLID_7_" fill="none" stroke="#403616" stroke-width="7" stroke-linecap="round" stroke-miterlimit="10" d="
			M90.872,61.205c0,0-0.125-10.667,9.375-10.667s9.292,10.583,9.292,10.583"/>
	</g>
	<g id="XMLID_2_">
		<g id="XMLID_10_">
			<path id="XMLID_15_" fill="#403616" d="M33.531,80.526c-1.492,0.004-2.521,1.515-1.955,2.896
				c2.938,7.172,12.754,25.232,37.1,25.232c24.334,0,34.372-18.186,37.402-25.422c0.581-1.387-0.457-2.914-1.961-2.91L33.531,80.526
				z"/>
		</g>
		<path id="XMLID_147_" fill="#F15B5B" d="M44.517,84.863c0,0,2.826,39.807,25.192,39.236c22.364-0.57,23.104-40.469,23.104-40.469"
			/>
		<g id="XMLID_11_">
			<defs>
				<path id="XMLID_13_" d="M33.531,80.526c-1.492,0.004-2.521,1.515-1.955,2.896c2.938,7.172,12.754,25.232,37.1,25.232
					c24.334,0,34.372-18.186,37.402-25.422c0.581-1.387-0.457-2.914-1.961-2.91L33.531,80.526z"/>
			</defs>
			<clipPath id="XMLID_3_">
				<use xlink:href="#XMLID_13_"  overflow="visible"/>
			</clipPath>
			<path id="XMLID_14_" clip-path="url(#XMLID_3_)" fill="#FFFFFF" d="M36.676,79.71c-1.358,0.001-2.296,0.407-1.781,0.778
				c2.677,1.93,11.618,6.787,33.794,6.787c22.167,0,31.309-4.891,34.07-6.838c0.529-0.373-0.416-0.783-1.786-0.782L36.676,79.71z"/>
		</g>
	</g>
</g>
</svg>
